<?xml version="1.0" encoding="UTF-8"?>
<svg width="24px" height="24px" viewBox="0 0 24 24" version="1.1" xmlns="http://www.w3.org/2000/svg" xmlns:xlink="http://www.w3.org/1999/xlink">
    <title>ico / arrows / arrow_backward</title>
    <g id="ico-/-arrows-/-arrow_backward" stroke="none" stroke-width="1" fill="none" fill-rule="evenodd">
        <path d="M22,11.5 L22,12.5 C22,12.7761424 21.7761424,13 21.5,13 L5.33,13 L9.78,17.44 C9.87465633,17.5338833 9.92789916,17.6616812 9.92789916,17.795 C9.92789916,17.9283188 9.87465633,18.0561167 9.78,18.15 L9.07,18.85 C8.9761167,18.9446563 8.84831877,18.9978992 8.715,18.9978992 C8.58168123,18.9978992 8.4538833,18.9446563 8.36,18.85 L2.22,12.72 C2.07930751,12.5794826 2,12.3888454 2,12.19 L2,11.81 C2.00230401,11.6115859 2.08111602,11.4217206 2.22,11.28 L8.36,5.15 C8.4538833,5.05534367 8.58168123,5.00210084 8.715,5.00210084 C8.84831877,5.00210084 8.9761167,5.05534367 9.07,5.15 L9.78,5.86 C9.87406407,5.95216359 9.92707144,6.07831031 9.92707144,6.21 C9.92707144,6.34168969 9.87406407,6.46783641 9.78,6.56 L5.33,11 L21.5,11 C21.7761424,11 22,11.2238576 22,11.5 Z" id="Icon-color" fill="#000000" fill-rule="nonzero"></path>
    </g>
</svg>