<?xml version="1.0" encoding="UTF-8"?>
<svg width="353px" height="145px" viewBox="0 0 353 145" version="1.1" xmlns="http://www.w3.org/2000/svg" xmlns:xlink="http://www.w3.org/1999/xlink">
    <title>Group 4@1x</title>
    <defs>
        <linearGradient x1="50%" y1="0%" x2="50%" y2="100%" id="linearGradient-1">
            <stop stop-color="#8286EA" offset="0%"></stop>
            <stop stop-color="#FFFFFF" stop-opacity="0.5" offset="100%"></stop>
        </linearGradient>
    </defs>
    <g id="Page-1" stroke="none" stroke-width="1" fill="none" fill-rule="evenodd">
        <g id="Registration-6_1-Country" transform="translate(-11.000000, -159.000000)" stroke="url(#linearGradient-1)">
            <g id="Group-4" transform="translate(12.000000, 160.000000)">
                <path d="M66.8239487,10.1166591 L67.0137157,10.1584586 L67.0137157,12.0584535 C69.7485177,11.9295467 71.0172259,10.7122977 73.5998382,10.4632312 C74.0674755,11.0810633 74.1583281,11.9672979 74.4622463,12.6914782 C73.8290451,13.4663005 70.0796455,13.8327643 70.0796455,12.371513 C67.1220932,13.1302219 63.2541701,14.7691805 60.0116082,14.2839383 C59.4632642,15.523746 61.0363518,15.2152903 62.1952991,15.2314036 C62.4222,15.7069778 62.8414134,16.0237204 63.0637025,16.4919285 C63.4183705,15.2276405 65.4300358,15.1726715 66.4514581,14.3946896 L66.5843564,14.2839383 L73.140041,14.2839383 C73.3687867,15.0744135 73.206451,15.822994 74.0006043,16.8201806 C71.7103806,17.2547809 70.7432846,18.6727562 68.3142455,19.029552 C68.1136319,20.0239763 69.2808804,20.2748843 68.3142455,20.9313885 C66.5843564,21.0400385 65.9018089,20.3766286 63.947786,20.6174082 C64.7208114,21.4332332 66.0448938,21.8454474 67.3879474,22.2427313 L68.0072278,22.4264483 L68.3142455,22.5201654 C69.0498288,22.4800739 69.4789191,22.2139477 69.8887868,21.9333947 L70.1346989,21.7650245 C70.6311024,21.4315931 71.1825592,21.13833 72.285473,21.2508933 C72.1950816,22.0441308 72.4976162,22.5629809 73.140041,22.8392099 C74.0863839,22.2954992 74.6425679,19.7739891 73.140041,19.3426115 C72.7738635,18.4485504 73.7515667,18.5217511 73.5998382,17.7662648 C75.6949824,17.2985171 75.418274,18.5452305 77.0835977,18.3933046 C77.6822104,19.7643211 79.1040307,20.5400641 80.6014846,21.2508933 C81.0774231,22.4755084 79.0366983,22.3792887 80.1573675,23.1628582 C80.9588997,22.4598555 81.8738823,21.8636613 82.3452091,20.9313885 C82.4060849,20.2569294 80.8007147,20.7941948 80.1573675,20.6174082 C77.4539259,18.835271 80.0835786,15.5941844 82.3452091,14.5845675 C83.7448927,14.6347491 84.2568033,15.3105893 84.0935453,16.4919285 C84.5819358,15.4781682 88.3032034,14.8548115 88.0426362,16.8201806 C89.5290218,16.7221193 90.5597608,16.3096174 92.4266206,16.4919285 C92.5550716,17.2093969 93.8060544,17.096342 93.7589627,17.9362033 L93.7386799,18.0853093 L97.6697847,18.0853093 C97.5139056,19.3624079 98.8785395,19.5428775 99.4434859,20.3038883 C99.3088211,20.9530264 98.2374982,20.9180374 98.1125182,21.5644132 C99.4195045,21.9023333 100.560466,22.3406166 102.055153,22.5201654 C102.535242,22.8161908 102.181516,23.6899951 103.363984,23.4667101 C103.383353,24.2162113 102.632551,24.3966809 102.939236,25.3708484 C101.466225,25.0596305 101.502197,25.8137356 101.625332,26.6373583 C101.106504,26.5396423 100.717577,26.3468215 100.346047,26.1403242 L99.9761497,25.9322838 C99.4795733,25.6568605 98.9472554,25.4053771 98.1125182,25.3708484 C98.1157465,26.3229176 99.2488676,26.4532056 99.4434859,27.2786699 C99.7349522,29.1657741 98.0230492,29.1220379 99.0035195,30.7637587 C96.9129212,30.6453749 95.6648719,29.9154539 94.4717448,29.1454167 L94.0253583,28.8558883 C93.2805438,28.3739271 92.518725,27.904197 91.54761,27.5862048 C89.7148777,27.6520394 87.8858348,27.7105078 87.1603974,26.9573235 C87.3938702,25.8867204 88.5655914,25.4965065 89.788828,25.1447865 L90.2787683,25.0046299 C91.4999783,24.6517634 92.6544727,24.2518046 92.8555187,23.1628582 C93.1040951,21.8116381 90.4933508,22.5464072 91.1039541,20.9313885 C89.6996587,21.2992334 88.4180374,19.9687305 87.5962133,20.9313885 C86.9007527,20.2900769 85.4028375,20.1984609 83.6651084,20.3038883 C84.1903933,20.7550623 85.3318157,20.7877494 85.8474158,21.2508933 C85.4028375,22.080501 85.3087567,23.1946245 85.4028375,24.4215415 C83.4520429,25.0057658 81.804244,25.2700249 78.8489977,25.6917344 C78.7516885,26.2911513 79.3203244,26.3915145 79.29127,26.9573235 C76.971992,27.0774831 76.3000516,28.3812839 75.3334167,29.4921847 C73.8963775,30.0487861 73.28024,31.1748795 71.8330547,31.7172091 C71.8282973,31.7694503 71.8251648,31.82288 71.8222551,31.876491 L71.8127915,32.0368604 C71.7837914,32.4341061 71.6884381,32.7848825 70.9351358,32.6642141 C70.7432846,33.8759385 72.9753995,33.3096691 72.285473,34.8864761 C74.2966824,35.3224575 75.777995,36.1474614 77.0835977,37.1022929 C78.1955045,37.0774323 78.4694459,36.5042572 78.8489977,37.4204166 C79.73262,37.2491546 79.7072551,36.4701889 80.6014846,37.1022929 C81.1456779,38.3885991 81.3421409,39.944689 82.3452091,40.9156338 C82.4538071,40.6799985 82.544481,40.4319285 82.6282369,40.1792338 L82.7500581,39.7976993 C83.0883134,38.7123893 83.4010122,37.6140771 84.5330506,37.1022929 C84.2323608,36.6736776 83.2108454,37.3757596 82.7704177,36.4701889 C83.2219137,35.5738259 84.6580306,36.5622652 85.4028375,36.4701889 C84.6580306,34.1153369 86.5013701,32.3382639 85.8474158,29.1782044 C86.4351229,29.3019117 86.7205251,29.2120274 86.9687281,29.0954253 L87.1520476,29.0058841 C87.3674484,28.9023881 87.6051113,28.8142051 88.0426362,28.8665261 C89.2744501,28.8075972 89.0673799,30.051088 90.2194094,29.1782044 C92.1817495,29.3835664 91.8491576,30.7919159 93.9350784,30.2017584 L94.1680391,30.130734 L94.1680391,33.2935557 C94.3566621,34.0181964 96.3318993,33.432591 97.2353524,33.6213475 C97.8198088,33.6504916 97.7713543,33.2262443 97.6940744,32.7849987 L97.6609508,32.596125 C97.6243571,32.3775269 97.6021315,32.1702646 97.6697847,32.0288874 C98.9694536,32.0988654 99.402283,32.799644 99.7792121,33.5439252 L99.9195241,33.8239227 C100.201243,34.3834079 100.508537,34.926069 101.183521,35.2041395 C101.213037,35.7519936 101.083445,36.197643 100.748166,36.4701889 C100.823632,37.0845891 101.293103,37.4187653 101.778295,37.7413455 L102.068271,37.9356511 C102.544622,38.2643379 102.961037,38.6351544 102.939236,39.3167285 C104.031312,39.2969321 104.280811,38.7311231 105.121543,39.3167285 C105.27235,41.3069582 105.27235,41.4796013 105.121543,43.4431289 C105.750133,44.2644497 106.156433,45.2386173 107.753963,45.3491088 C106.895245,45.9545107 107.54182,46.8435076 107.753963,47.5732124 C106.364887,48.0073523 105.121543,46.7882618 104.687111,47.5732124 C104.046992,47.5119817 104.280811,46.7951675 104.239305,46.3044007 C102.632551,46.0737495 102.370139,46.8435076 100.748166,46.6142375 C101.58936,44.7925075 103.674819,43.8777292 104.687111,42.1798418 C103.152763,41.597459 100.685446,44.1755961 98.5543294,43.1314506 C98.1955308,44.0351797 99.1792293,43.9509299 99.0035195,44.7220691 C98.0497976,45.1018839 96.611836,45.1051066 96.3678714,45.9858166 C96.1792485,47.3761691 98.3615558,47.0769211 99.4434859,47.5732124 C98.2268911,48.4953568 96.3678714,48.9423874 94.6149233,49.4709055 C94.6149233,49.2270567 94.7954969,49.1112494 94.9983778,49.0101408 L95.1740473,48.9244325 C95.4346721,48.7933388 95.6574224,48.6330109 95.5059245,48.2025541 C93.3854154,48.792303 90.9536092,49.1472572 89.3514672,50.1076133 C88.8921312,51.2880317 90.4495386,51.0118028 90.2194094,52.0080686 C88.6938235,52.3892646 87.3052082,52.8468839 85.8474158,53.2731973 C86.4105175,55.4070661 83.8947764,55.0221871 84.9863913,56.7601277 C84.4551111,57.0303717 83.7947002,57.1726296 82.7704177,57.0810137 C83.1739509,58.0119053 83.1739509,58.0556416 82.7704177,58.9787067 C79.7552179,59.4340241 77.8210258,60.6862621 77.0835977,62.7860627 C77.1254005,63.3078395 77.4511823,63.6188085 77.8098954,63.9005998 L78.0511612,64.0861312 C78.1714784,64.1787288 78.289256,64.2725692 78.3951958,64.3743793 C78.1046519,65.419906 77.8703721,65.9161973 78.3951958,67.5519332 C76.3000516,67.3866562 75.1438714,66.5252822 75.3334167,64.6888199 C75.102023,63.7321766 73.6149775,63.6955837 72.0174015,63.7283117 L71.3605854,63.7434103 C70.9224689,63.7531779 70.4877458,63.7594728 70.0796455,63.7450376 C69.5442146,63.8016646 69.5990951,64.2450121 69.6350672,64.6888199 C68.6723159,64.7202228 68.0151857,64.5314179 67.3982559,64.3134106 L66.9389489,64.1474141 C66.2488532,63.8991596 65.5256553,63.6743812 64.3914419,63.7450376 C62.9175082,64.0590179 61.9937631,64.7436054 60.4432734,65.007404 C60.845423,65.7724874 60.776939,66.8387095 60.6601211,67.9415877 L60.624048,68.2732864 C60.3611854,70.6545503 60.0701072,73.0830005 63.947786,72.9301113 C65.2856714,72.6290217 64.8992019,71.0853622 65.7058071,70.4026162 C67.841074,70.5945954 67.9563692,70.5945954 70.0796455,70.4026162 C70.4693432,72.3804157 69.1974066,73.1423472 68.7629744,74.5267148 C69.3188263,74.7338865 70.0507578,74.8124195 70.7968546,74.8793345 L71.2945742,74.9235074 C72.4525245,75.0285543 73.5576863,75.1684131 74.0006043,75.7835566 C74.4622463,77.8483682 72.9786277,79.315144 74.0006043,80.8624866 C74.7788315,80.7957006 75.2836789,80.5351042 75.7561685,80.2557203 L76.1082346,80.0453945 C76.4028437,79.8717454 76.7083503,79.7078495 77.0835977,79.5964372 C77.9043404,79.6355665 78.4565925,79.8668846 78.7051548,80.3243283 L78.7111519,80.3125043 L78.7111519,80.3125043 C80.1203624,80.4611871 80.5254636,79.9085361 80.9277615,79.3484043 C81.3630779,79.4382139 81.6421594,79.6379317 81.8942553,79.8566439 L82.1920893,80.1223974 C82.4432766,80.341759 82.7191782,80.5437496 83.1490435,80.6374556 C83.9998964,80.4957862 83.4976082,79.3825358 84.915229,79.6710178 C85.2717369,81.0278647 87.4327443,81.0811661 88.0345557,82.2425747 C88.6681397,82.1630902 88.7835492,81.7193797 89.3596621,81.600153 C91.6155202,82.1158671 93.2690998,83.0589271 95.5885032,83.5269505 C95.8216584,84.9740357 96.8430557,85.8348059 98.2447902,86.4379529 C102.268236,84.9997513 104.859576,89.1119045 103.583997,90.6136938 C103.605226,91.2969554 104.592911,91.2929419 105.602486,91.2708801 L105.920926,91.2640938 C106.02658,91.2621521 106.131375,91.260791 106.23421,91.260791 C106.459038,92.5376191 109.231142,91.9741279 110.141914,92.7673528 L110.235228,92.8612345 L113.344275,92.8612345 C114.903938,93.3315957 116.626203,93.7004972 117.325201,94.8025262 C118.238198,94.620647 118.761044,93.8814413 119.540876,94.4873936 C119.974479,95.336475 120.444528,96.1776078 120.4221,97.3750183 C120.4221,98.1338613 119.668434,98.3283645 119.974479,99.3177126 C118.59564,99.6973679 119.838978,100.412728 118.661989,101.252926 C118.189137,102.079097 117.04719,102.435375 116.883655,103.50187 C116.316887,103.518234 116.26035,103.918462 115.544064,103.813729 C115.61929,104.616055 115.329131,105.157952 114.655364,105.427732 C115.569412,106.841796 115.072416,108.072308 114.521624,109.300423 L114.35613,109.668966 C114.08214,110.28369 113.828633,110.902343 113.765263,111.54757 C111.886938,112.060478 111.886938,112.060478 109.769385,112.511202 C109.057303,113.003739 108.561833,113.656695 107.901931,114.193593 L107.556513,114.451091 L107.556513,116.696762 C107.266475,116.99669 106.901452,117.241738 106.535488,117.485614 L106.261994,117.66914 C105.493153,118.193264 104.803645,118.772727 104.903964,119.922897 C103.688721,119.884679 103.429519,120.533389 103.220978,121.219742 L103.127499,121.528951 C102.80841,121.595812 102.34523,121.547952 102.250815,121.788366 L102.234594,121.861383 L98.6802624,121.861383 C98.8643569,123.005025 99.8689333,123.572637 99.5759708,125.073959 C97.8915531,125.457822 97.0757436,126.481302 94.6857862,126.368154 C94.5863587,126.534091 94.5038117,126.71185 94.4257801,126.892573 L94.2875289,127.219161 C93.9176185,128.088394 93.4808066,128.903466 91.6096126,128.68482 L91.4803191,128.666404 L91.494333,128.670076 C93.9521573,129.197707 92.3556457,132.043165 91.2173586,133.058032 L91.1422012,133.122932 C90.9113822,134.272652 92.7018645,133.916375 92.475718,135.059548 C92.4112382,135.874966 91.838396,136.300909 90.6894409,136.340651 C90.6436509,137.585752 89.206873,137.831219 89.3596621,139.240432 C88.8961552,140.439713 91.0211848,139.759419 90.6894409,140.845552 C91.2837764,141.505273 92.1519173,141.947113 93.3415227,142.134135 C93.0471585,143.313311 90.1348213,142.585794 88.4704951,142.780765 C88.3882133,142.745465 88.3069968,142.709285 88.2263335,142.672588 L87.7448956,142.449073 C87.181404,142.187792 86.5948341,141.936499 85.8095357,141.819003 C85.8987795,141.210713 85.3123872,141.10785 85.3763997,140.53603 C83.8933645,139.882387 84.0312018,138.066867 82.7247852,137.315505 C83.7363703,135.470998 82.2430557,134.345123 81.8089853,132.156027 C82.7462784,131.147977 81.4136961,130.368561 82.2598765,129.589613 C82.7986099,128.544158 80.8226314,129.338536 81.3870632,128.291211 C81.5831725,128.071059 81.880016,127.922204 82.1945958,127.785094 L82.5516036,127.63266 C83.2235506,127.342224 83.8350424,127.003979 83.5896554,126.046475 C83.2013749,125.159522 82.0398042,126.608477 81.3870632,125.717316 C82.2963216,123.598821 81.1936238,119.9949 83.5896554,118.954589 C84.1237163,116.943631 82.3986483,115.252014 83.5896554,113.802591 C83.535455,113.20225 83.3079067,112.724875 82.7247852,112.511202 C83.1742747,112.093207 83.1396986,111.331091 83.5896554,110.906083 C83.5953048,109.60496 83.0297146,108.717737 82.4089596,107.874027 L82.1410489,107.514021 C81.87277,107.15452 81.6079001,106.793292 81.3870632,106.401183 C79.6591198,106.239768 78.8078971,105.452108 77.9622369,104.663186 L77.6625809,104.385709 C77.3099419,104.064298 76.940869,103.755141 76.4945423,103.50187 C76.3195179,103.072378 76.448083,102.861774 76.6148113,102.679151 L76.7428659,102.544447 C76.8909341,102.386453 77.0174168,102.213341 76.9444991,101.897218 C74.5779039,101.237497 72.6266894,100.291164 72.9500228,97.6976318 C73.1196327,97.6594592 73.3015793,97.6298314 73.4864009,97.6022846 L73.8570738,97.5480505 C74.4104228,97.4651158 74.9328765,97.3621271 75.1689686,97.0645612 C74.8334019,96.8707381 74.4328997,96.7276737 74.0218099,96.5944958 L73.4040279,96.3970348 C72.8939148,96.230148 72.4097179,96.0467772 72.0575852,95.7670939 C73.843395,94.7342631 71.1973874,93.5069291 72.0575852,91.260791 C72.1804502,90.8288508 72.4572994,90.5078936 72.7575368,90.2031832 L72.9850595,89.9762165 C73.4786843,89.4846411 73.9478547,88.9734267 73.8321811,88.0360586 C73.6695799,87.6014655 73.8889514,87.4400419 74.1489731,87.306204 L74.3245976,87.2183706 C74.5277789,87.1143777 74.709667,86.9940586 74.709667,86.7418642 C74.4442719,86.1359119 74.0503845,85.6075738 73.7550857,85.0114401 C74.1699991,84.553703 74.8199367,83.8018733 75.1853222,83.2010641 C75.2581408,83.1319844 75.3339663,83.0651761 75.4122736,83.0002452 C73.5806314,82.5266801 72.9532513,81.1811553 70.8389455,80.8972178 L70.5057765,80.8624866 L70.5057765,79.9094967 C69.5990951,79.5135685 68.7293082,79.0909382 68.3142455,78.3285462 C66.9265526,78.3966827 66.4796684,77.7650391 64.8263354,78.0104225 C64.1502444,77.3345823 63.5668507,76.6025755 63.0637025,75.7835566 C58.7318316,76.4851782 56.6034823,74.8614122 52.982291,74.2104326 C52.9077334,74.0975624 52.8313343,73.985971 52.7541015,73.8749354 L52.5209095,73.5427727 C51.7419837,72.4363009 50.980459,71.3130976 51.2441007,69.4500867 C50.2788493,68.46487 49.0991489,67.6237528 47.7225243,66.9120028 C47.6849502,66.4427043 47.7831396,65.8701069 47.0061863,65.9493148 L46.8684176,65.9686808 L46.8756508,66.2095608 C46.961963,67.7266945 47.7831367,67.5226442 47.7225243,68.8060128 C47.1390154,68.9139723 46.8244739,68.822957 46.5435533,68.7063759 L46.3055088,68.6042328 C46.0245883,68.4871985 45.7100468,68.3941439 45.1265378,68.4984778 C44.9084194,68.1830964 44.718861,67.8489168 44.5252444,67.5187502 L44.3290671,67.1907661 C43.8292015,66.3783744 43.2360175,65.6385872 42.039855,65.3278296 C42.1136439,64.9516978 41.9757508,64.4310062 42.4821273,64.3743793 C40.9777557,63.3408226 41.0663024,61.1655194 39.8589311,59.9404439 C38.7382619,59.3810802 37.9690124,58.5597594 36.8082204,58.0349244 C36.3064557,54.6497383 36.595616,52.3183658 36.8082204,48.8438657 C36.4710972,47.9649972 37.6614048,48.1970295 37.6614048,47.5732124 C37.2140594,46.5249235 36.3410443,46.1731919 37.6614048,45.3491088 C36.4493508,43.8952945 36.4339217,41.6006136 36.3980713,39.3026364 L36.3868733,38.676463 C36.3823622,38.4681307 36.376768,38.2604006 36.3691763,38.0539017 C34.7001631,38.2021446 36.7192125,39.7536306 34.5996257,39.9580401 C34.9510454,37.0774323 32.569508,36.1612728 29.7848985,35.5218028 C28.9400153,34.6429343 27.9341801,33.9067841 26.7009827,33.2935557 C24.9042225,33.140709 24.7921555,34.22767 22.7800239,33.9288824 C22.9893999,35.0388625 23.4164533,36.0001393 23.2199903,37.4204166 C22.0497606,37.4963795 21.204668,37.8022726 20.3915264,38.1282663 L19.949401,38.3068133 C18.8431984,38.7518584 17.6972848,39.1633392 15.7682315,39.0091936 C16.318504,38.1878518 17.5835505,37.9143509 17.5333647,36.6567119 L17.517029,36.4701889 L17.3600755,36.4475662 C16.7709891,36.3847879 16.6348191,36.6460753 16.5262141,36.9260464 L16.4722394,37.0661751 C16.4277466,37.1772615 16.3763216,37.2831939 16.2907417,37.3644276 L16.2197275,37.4204166 L15.3351828,37.4204166 C12.8217476,38.9907783 9.9739564,40.3111528 8.32661871,42.4905994 C6.67697511,42.5849776 5.30311761,42.8501574 4.8119601,43.7653961 C2.73019013,43.5163296 2.00383042,44.2598459 4.07428228e-14,44.0807575 C0.184933487,43.4707518 1.23734799,43.507122 0.884544707,42.4905994 C3.43856378,42.4468631 4.12526194,41.0496049 6.13554889,40.5933667 C8.36166844,39.7803328 9.04744424,37.856398 10.937363,36.7892334 C9.49894021,35.9039195 7.54583967,36.1856731 7.005797,37.4204166 C5.88420538,37.7693858 6.30203515,35.4601116 5.6822082,36.4701889 C5.03563277,36.4107997 5.27821385,35.7105592 5.24039703,35.2041395 C4.4139611,35.1309388 4.29267056,35.5609352 3.50266791,35.5218028 C3.98183472,33.8492364 3.63825505,33.7465713 2.17815675,32.9804962 C1.45133587,28.1276136 10.5619619,30.381642 12.707836,27.5862048 C10.6394402,28.0083747 8.89571577,27.31504 6.57136472,27.9245853 C6.33616253,26.3869107 5.48021103,25.3174442 3.06362382,25.3708484 C4.4139611,23.9293936 8.41701014,24.3842506 10.0818727,23.1628582 C11.0706443,23.2908443 11.4594196,23.8317927 12.2586459,24.1117047 C12.4438014,23.996848 12.5565244,23.8279934 12.6696327,23.6587077 L12.755674,23.5324996 C13.0061098,23.1794237 13.3404906,22.8848729 14.4575558,23.1628582 C14.1185879,22.335092 13.0541827,22.05518 11.3796354,22.2075663 C10.8737201,21.2343196 9.0820328,21.2113005 10.0818727,19.9811608 C12.1959253,19.7238075 16.4461672,19.4296236 19.7219342,18.3933046 C23.4842469,19.791944 30.2280932,19.0369181 33.7206151,20.6174082 C35.1456637,20.802942 35.7585729,20.4065534 36.8082204,20.3038883 C36.8783198,20.5446679 36.8082204,20.927245 37.233429,20.9313885 C37.8223569,20.9313885 37.6226656,20.3798513 38.1092113,20.3038883 C39.5282645,20.2293065 39.9576238,20.8604897 41.621564,20.6174082 C43.435388,20.6896881 43.435388,19.4153518 45.1265378,19.3426115 C45.4830306,19.7205848 45.6951737,20.1984609 45.5508241,20.9313885 C46.8209159,20.7877494 47.9812468,20.5672266 48.1883169,19.6671805 C49.8702432,19.7136791 49.9048317,20.9548679 51.2441007,21.2508933 C55.8946475,20.9530264 57.8643505,22.5873812 61.7502597,22.8392099 C61.8388064,23.2070548 61.6787766,23.7286672 62.1952991,23.793581 C64.0149786,23.3797398 62.4152971,22.4256363 62.210286,21.6377673 L62.1952991,21.5644132 L61.7502597,21.5644132 C59.9641066,21.063518 59.4572689,20.8604897 57.8223831,21.5644132 C58.2404435,20.4153007 57.2487895,20.2891561 56.1538311,20.2356368 L55.6820472,20.2143756 C54.741065,20.1696636 53.8613015,20.0785644 53.8654521,19.3426115 C53.5629175,18.489064 55.9398432,19.5769457 55.6262403,18.7187944 C55.3901157,17.8256541 52.0876003,19.1626023 52.982291,17.4449185 C52.6176869,17.5268122 52.2790749,17.6279751 51.9462152,17.733558 L51.4487099,17.8933911 C50.5352499,18.18569 49.5887601,18.4552666 48.1883169,18.3933046 C48.3087665,17.8549289 48.1017873,17.5531862 47.8569479,17.280668 L47.6707441,17.0785182 C47.4557815,16.8415079 47.2672575,16.5871733 47.2991604,16.1765671 C48.5858547,15.4104921 49.7051405,14.5380689 49.9348085,13.0008547 C53.2124202,12.9515939 56.6864949,12.7729658 57.3921014,14.5845675 C58.1913277,14.5528011 58.8494327,14.3824599 59.1302917,13.9630523 C58.740594,13.4833346 58.4837163,14.0468417 57.3921014,13.6444682 C57.4628852,13.2139371 57.9738126,13.0984292 58.4954298,12.988304 L58.7353714,12.9367317 C59.3688998,12.7942114 59.9185389,12.5876845 59.5836324,11.7398694 C60.4058024,11.7281297 61.1190833,11.8014599 61.8219715,11.8859093 L62.5250433,11.9713263 C63.4675815,12.0828537 64.4500119,12.1703262 65.7058071,12.0584535 C64.2313249,11.6624755 64.598375,9.68311841 66.8239487,10.1166591 Z M101.810095,137.499645 L101.787254,137.625448 L100.006584,137.625448 C99.9389137,136.613335 101.945024,136.374449 101.810095,137.499645 Z M342.284289,117.793412 C343.174167,118.32454 344.310367,118.639897 344.461738,119.692931 C344.417063,121.496602 341.346652,121.088158 341.018813,122.678839 L340.993966,122.864023 L339.236687,122.864023 C339.682085,124.249473 338.335801,124.334306 337.923429,125.090426 C336.369354,124.93413 335.427184,124.57774 334.002463,125.090426 C334.069683,124.974116 334.135167,124.856781 334.200026,124.739194 L334.393836,124.386454 C334.976301,123.330611 335.598071,122.317052 337.068871,121.909652 C337.762426,121.725694 338.139752,121.307376 338.48927,120.864824 L338.721328,120.568506 C338.877507,120.371642 339.040853,120.179215 339.236687,120.009672 C339.642178,119.76716 340.222433,119.668957 340.993966,119.692931 C340.977453,118.732568 341.913201,118.46101 342.284289,117.793412 Z M259.232256,12.5120189 C261.139869,12.5189112 263.171581,12.60943 264.495146,12.184405 C264.745227,12.5786061 265.135069,12.8688644 265.54964,13.1406356 L266.051633,13.4633563 C266.467582,13.7340106 266.862246,14.0203601 267.120593,14.4078604 C267.10583,15.3447535 265.981561,15.4862754 265.815481,16.2977287 C268.264699,15.9356533 269.09556,16.7935147 270.195379,16.9433073 C270.724067,17.0149872 271.417451,16.817408 271.929069,16.9433073 C273.38273,17.2493253 274.733514,17.9142024 276.763841,17.5796962 C277.847052,17.3586832 278.27194,18.3272808 279.375449,18.5289954 C282.675365,19.090488 287.457084,18.0975375 291.225715,18.5289954 C292.532211,18.3162532 290.785142,17.8457389 291.225715,17.2543797 C291.865123,17.2038362 292.823773,17.3660349 292.976936,16.9433073 C294.966666,17.072423 294.812119,17.8117369 296.925487,17.2543797 C297.3107,17.8117369 298.864932,17.7768159 297.784489,18.5289954 L297.901159,18.528068 L297.901159,18.528068 L298.141064,18.5218757 C298.262631,18.5177426 298.386044,18.5124631 298.508716,18.5078774 L298.752306,18.5001764 C299.636226,18.47933 300.387547,18.5617721 299.985972,19.4732403 C300.473139,19.399263 300.660441,19.125409 300.857891,18.8492576 C302.49747,19.5403254 304.2796,20.1615512 306.106479,20.7340714 C306.846458,20.7340714 306.360213,19.8624254 306.995007,19.7916645 C309.092729,19.4644313 309.826314,20.1306073 310.470377,20.8545766 L310.644769,21.0527527 C310.963929,21.4161251 311.289677,21.7726818 311.781339,22.0054708 C314.296528,21.4637361 316.663168,22.3487072 317.952133,21.3704603 C318.423615,21.4582493 318.661692,21.7182885 318.867211,22.0034959 L319.040081,22.2506926 C319.272436,22.5793584 319.537219,22.8860092 320.134239,22.9510941 C321.341086,22.6675909 319.528047,21.9769826 320.134239,21.0465223 C323.238089,20.6012798 323.849355,21.9590626 326.717002,21.6833707 C327.216626,22.2774868 328.404098,22.3624918 328.909719,22.9510941 C331.314926,22.6711443 332.704786,23.1330227 334.00749,23.6667187 L334.417055,23.8368602 C335.030305,24.0933088 335.645922,24.3500469 336.362557,24.5358633 C336.715477,24.9034525 336.931381,25.382697 336.796672,26.1155781 C337.862813,24.6727903 339.56421,26.3669172 340.731383,26.751967 C339.892679,27.6851842 340.858711,28.7121367 340.284351,29.2740887 C338.81588,29.4704004 338.189904,29.0519371 337.610335,28.5980825 L337.379096,28.4160265 C336.91402,28.0536329 336.410711,27.7180296 335.461574,27.7058611 C334.749178,27.626781 334.47064,27.8631048 334.21682,28.119673 L334.064221,28.273682 C333.882012,28.4506837 333.671819,28.6086796 333.293307,28.6464301 C333.293307,30.0189164 335.461574,29.8222562 335.461574,31.1759036 C333.822918,31.1253601 331.898236,31.9942492 329.343834,32.1311762 C328.600626,32.5506874 328.662445,33.5376646 328.028573,34.0242608 L327.58489,33.9847722 C324.499057,33.6992766 321.860359,33.2742326 321.4495,35.9246973 C321.243745,36.9107554 322.562697,36.8170202 323.207641,37.1942586 C323.067395,37.8338639 322.021092,37.8182414 321.909449,38.4592251 C322.853798,39.6479169 321.04814,39.4167951 321.4495,40.9813469 C320.731346,41.3190695 320.213028,41.7978763 319.716647,42.292301 L319.292401,42.716992 C319.007619,42.9987675 318.713403,43.2739374 318.376559,43.5190912 C317.151719,43.044901 316.829247,41.8860759 316.636872,40.6744099 C316.480018,40.4610667 316.279969,40.2798713 316.06981,40.1063155 L315.751126,39.8486479 C315.380132,39.5475721 315.028841,39.2323643 314.874579,38.771676 C315.353904,36.0542725 317.410527,34.4768551 318.810212,32.445465 C318.376559,31.6505532 316.869383,32.7009395 317.073754,33.3966022 C316.181074,33.3056238 316.218442,32.5433356 315.319304,32.445465 C314.420165,32.5433356 314.457995,33.3056238 313.569006,33.3966022 C313.225312,34.4947751 314.225944,34.6068898 314.004043,35.6039756 C312.842867,35.6232741 311.504078,35.4877255 310.927412,35.9246973 C310.403337,35.899885 309.913862,35.8369353 310.065641,35.2970386 C307.447575,35.4877255 305.538117,34.8678782 303.471344,34.6578928 C302.103952,34.5058027 302.310168,35.7519303 301.305846,34.9698842 C300.312254,35.2246395 300.094694,36.0217314 299.885325,36.8231642 L299.805696,37.1228542 C299.737159,37.3710142 299.66005,37.6130307 299.550934,37.8324855 C299.441752,37.9143507 299.328303,37.9923102 299.21364,38.0688126 L298.869067,38.2963967 C298.412928,38.6005428 297.986246,38.9205497 297.784489,39.4131192 C298.300198,40.517253 299.207506,40.3151984 300.109651,40.0001505 L300.427194,39.8862083 C301.375305,39.5419638 302.265294,39.2284181 302.626182,40.361959 C303.221993,40.4292738 303.320603,40.131067 303.384786,39.8060377 L303.419163,39.6281247 C303.47395,39.3633722 303.562017,39.1218883 303.936829,39.0891812 C305.114666,39.2539602 305.133211,40.2691407 305.181863,41.2534465 L305.197611,41.5330754 C305.206921,41.6717085 305.219158,41.8079986 305.237789,41.9393764 C305.880887,42.858809 306.293319,43.9340075 307.877076,44.1495067 C307.579055,45.3014396 308.81958,45.3703625 308.742999,46.3761786 C307.877076,46.9027502 308.18986,46.3380413 306.995007,46.3761786 C306.637013,47.4637833 307.810644,47.7040948 306.995007,48.2651279 C305.148943,47.7355142 304.907658,46.0560241 304.813162,44.2438333 L304.793986,43.8393533 L304.793986,43.8393533 C304.690186,43.4579795 304.442348,43.1799901 304.180123,42.9119052 L304.004597,42.7336234 C303.538434,42.2566471 303.11786,41.7453199 303.471344,40.6744099 C302.47671,42.4608936 304.077997,45.0882378 303.471344,47.6379287 C302.209505,48.4958821 301.384051,49.6667273 300.585878,50.8585105 L300.187171,51.4547953 C300.120468,51.5540163 300.05348,51.6530449 299.985972,51.7517119 C298.721919,52.1101115 297.401583,52.4225623 296.481684,53.0231113 C295.908401,54.0150367 296.027652,55.1855318 296.186438,56.3163414 L296.246561,56.7381085 C296.454548,58.2047983 296.590027,59.5561266 295.176573,60.2986215 C293.800416,59.9135718 292.547435,59.4352463 292.976936,57.7645531 C292.353213,56.8207677 290.839118,56.5561035 290.341801,55.546152 C287.479228,55.546152 290.711328,57.034429 289.454195,57.4351013 C289.521089,58.0200277 289.044993,58.180848 288.138473,58.0834368 C288.318447,58.5011912 288.192135,58.7073973 288.028142,58.8877996 L287.902279,59.0211654 C287.756989,59.1778861 287.634263,59.3504034 287.714047,59.6631516 C287.750031,60.589936 288.716062,60.8440321 289.454195,61.2391905 C289.454195,62.216059 289.842177,62.8634755 290.776838,63.1552495 C290.011734,63.5686814 289.900447,64.4475976 289.845821,65.3715538 L289.812635,65.967593 C289.775502,66.5615627 289.708905,67.1369126 289.454195,67.581943 C288.890446,67.5911328 288.851694,67.9780205 288.138473,67.8856637 C287.457084,69.9363522 285.591452,71.1103404 284.200994,72.6349168 C281.995298,72.5656262 279.840903,72.5504356 279.41344,73.7743198 L279.375264,73.9052593 L279.375264,73.9052593 C277.457225,74.3115833 277.598854,72.387713 276.315887,73.2713057 C275.090124,74.1911978 277.749249,74.0951651 277.191036,75.4906258 C277.764473,75.807212 278.81539,75.8026172 279.375449,76.1233388 C279.851544,79.9343203 278.81539,82.6733198 274.556823,83.076749 C274.605724,82.5253651 274.471938,82.1053944 274.145775,81.8140799 C272.711688,81.6439386 271.969605,80.9691414 271.272716,80.260355 L271.012239,79.9938862 C270.881796,79.8607744 270.750099,79.728536 270.612885,79.6002736 C269.630229,79.680093 269.672524,80.4902686 269.738391,81.3230072 L269.758806,81.5859017 C269.780813,81.8915608 269.791712,82.1901696 269.741427,82.4463334 C270.430197,83.4273372 271.59368,84.0559148 272.814829,84.6624371 C272.933391,86.5909022 275.112268,87.0085755 274.99509,89.0992394 C272.524189,88.0359874 270.534459,86.6184714 268.424321,85.3006639 C268.907336,83.894635 267.688955,83.7250845 267.55563,82.7702714 C267.327824,82.1612679 267.62865,81.9270952 267.940238,81.707876 L268.094531,81.5978464 C268.244927,81.4857308 268.376434,81.3623586 268.424321,81.1827453 C268.187195,80.1934708 267.379401,79.6154367 266.233449,79.2869038 C266.904689,78.3196846 266.09551,78.049047 266.686017,77.3772776 C266.331145,77.1042366 265.669787,77.0539377 264.962217,77.0365841 L264.534212,77.028607 C263.53231,77.0121326 262.541861,76.9858304 262.277055,76.4288974 C261.935207,75.536115 262.897087,75.6091733 262.743925,74.8648051 C261.773447,74.6231569 261.374823,73.9725458 261.005772,73.3014858 L260.835567,72.9917285 C260.634836,72.631952 260.418491,72.2835767 260.101869,72.0072581 C258.470134,72.198864 257.228225,72.6675403 256.162545,73.2713057 C255.567886,74.2118747 253.841116,74.3524776 253.965215,75.807212 C253.377163,75.7039011 253.204153,75.9031315 253.053833,76.1185093 L252.971732,76.2358682 C252.813873,76.4515008 252.605582,76.629891 251.932712,76.4687375 L251.781263,76.4288974 L251.781263,77.7021346 L250.021277,77.7021346 C250.425405,80.4140243 248.857333,81.6950729 248.274669,83.7154353 C247.190392,83.7094045 245.937846,83.8269505 245.336203,83.4804779 L245.224796,83.4048224 L245.224796,81.4951962 C244.83866,80.4981104 243.936292,79.8915881 243.009935,79.2869038 C242.917668,79.1031666 242.82809,78.9175125 242.739366,78.7312338 L242.473916,78.171816 C241.940795,77.0544022 241.372317,75.9610252 240.372031,75.1708231 C240.745711,74.0694338 239.730778,73.9513458 239.96329,72.9556384 C239.33357,72.4341212 237.780261,72.611483 237.328616,72.0072581 C237.358603,71.6176135 237.452253,71.2569166 238.175624,71.3667339 C237.643245,71.215891 237.201025,70.9961439 236.769822,70.7668641 L236.447249,70.5940446 C235.47831,70.07579 234.464989,69.5844183 232.505839,69.7962088 C231.647759,69.8784569 231.639455,69.3606155 231.193346,69.1616579 C229.234525,69.1271964 228.922202,70.2644256 226.802376,70.1068217 C227.018717,69.5261033 226.752768,69.2914469 226.456349,69.0784736 L226.294359,68.9625071 C226.13478,68.8447916 225.990575,68.7159801 225.93507,68.523431 C223.267825,68.7321298 222.462836,67.6011312 221.722551,66.4270254 L221.558378,66.1659304 C221.119526,65.4705955 220.656638,64.7938501 219.795647,64.4055124 C219.145629,64.5824148 218.696751,64.8718913 218.046733,65.0405229 C218.954637,65.3318373 218.806087,66.387278 220.220074,66.3045704 C220.108632,67.1623319 220.494739,67.6594947 220.940982,68.1087091 L221.167091,68.3307682 C221.507695,68.6622055 221.841118,68.995983 221.982828,69.464 C222.693742,68.934212 223.823547,68.6883867 225.479734,68.8464501 C225.250372,70.0579735 226.032833,70.5438929 226.840343,71.0109199 L227.109087,71.1668653 C227.509533,71.4026421 227.888832,71.6533267 228.123634,72.0072581 C228.108725,72.4642175 227.832626,72.7385453 227.532915,72.9976612 L227.332217,73.1699889 C226.967418,73.488528 226.646215,73.8399203 226.802376,74.5298394 C226.125508,74.6757723 225.591911,74.9242626 225.073447,75.1841777 L224.55528,75.4445256 C223.945563,75.7448321 223.298304,76.0193417 222.410022,76.1233388 C221.620681,76.1651521 222.157673,77.1930235 221.543177,77.3772776 C217.989528,77.7765714 215.845251,79.1821408 212.792147,79.9177788 C210.593895,78.7842255 210.760436,76.8070548 209.714594,75.4906258 C207.942613,74.1208963 206.726077,72.3817397 204.88628,71.056121 C205.198333,70.6362935 204.806274,69.7850012 204.205576,69.0933307 C204.285523,69.2457059 204.358997,69.3896627 204.424685,69.5241216 C204.030136,69.7631789 204.918451,71.1660549 204.528074,72.076257 C205.044558,72.9836412 206.417829,73.2767094 207.164736,74.0117282 C206.306558,76.4793247 209.312732,76.0979603 208.921429,78.2241136 C210.436107,79.4029783 212.529758,80.1577953 212.866936,82.1966092 L212.897053,82.4285148 L216.869432,82.4285148 C218.594598,82.5135233 218.489354,81.2609387 220.373081,81.4558478 C221.746815,82.155642 221.162642,83.8069685 220.827438,85.0205713 C218.649769,87.1861761 216.749352,89.5706427 214.654209,91.8034089 C213.503481,92.2636763 212.616093,92.899127 211.561336,93.4242075 C211.064325,95.0013276 210.310463,96.377433 209.383204,97.6314266 C210.025331,100.259647 210.025331,104.050277 209.383204,106.684134 C205.932409,107.94799 204.134916,110.390695 204.086699,114.121208 C202.564603,113.871819 202.223835,114.480499 201.432419,114.774506 C201.796369,116.104585 200.781947,116.431938 201.002635,117.686871 C199.06049,118.522397 197.722919,119.79189 197.053437,121.570964 C193.277638,122.15804 191.156996,123.930069 186.922203,124.156915 C184.970984,122.598984 184.922224,119.663808 183.237499,117.936574 L182.972078,117.686871 L182.972078,114.774506 C182.241398,112.594812 180.878327,110.910609 178.991818,109.593681 C179.915832,107.995896 179.664544,105.56869 180.75361,104.098183 C180.638321,103.751156 180.544714,103.388497 180.45608,103.022359 L180.32477,102.472061 C180.061257,101.372325 179.767316,100.295967 178.991818,99.5711247 C179.74707,97.3125271 177.598611,96.0571245 176.342174,94.3987531 C176.322639,93.5032172 176.542083,92.7824095 176.777966,92.0721486 L176.935215,91.5984021 C177.219014,90.726125 177.453495,89.815101 177.232343,88.5655691 C175.708393,88.3124221 175.341198,88.9314347 174.588264,89.21464 C173.007287,89.084544 172.230243,88.3593881 170.202791,88.5655691 C169.563909,88.3701903 170.098011,87.3294226 169.313549,87.2763509 C168.227821,87.2011113 167.815562,87.6099414 167.462588,88.0625627 L167.253004,88.3358681 C167.087884,88.5470472 166.908925,88.7485864 166.653706,88.8957405 C164.367085,88.8257611 162.263133,88.8957405 160.486968,89.21464 C158.772952,89.0137371 157.59817,88.4085917 156.470979,87.7671069 L155.952326,87.4697963 C155.433471,87.1725847 154.908643,86.8796891 154.329503,86.6272801 C153.688825,84.8823444 152.479295,83.5386382 151.076056,82.3419102 L150.792936,82.104449 L150.792936,73.6979949 C151.915384,72.5769152 152.929342,71.3816291 153.000277,69.4907757 C153.393926,69.1351322 154.02623,68.7774183 154.680031,68.4201259 L155.240632,68.1140366 C155.981613,67.7062103 156.669633,67.2998646 156.980537,66.8987192 C157.984295,65.5517328 157.535502,63.5692956 158.732594,62.050883 C159.859677,61.4736702 161.441118,61.2444759 161.806458,60.1041401 C163.163502,60.0858233 164.061553,60.4019049 164.436165,61.0829127 C166.142323,59.8256314 169.240296,59.6264953 172.810244,59.7800743 C174.637872,59.1770302 176.756196,58.7895602 179.417893,58.8121039 C179.996503,59.2376164 180.018294,60.0149046 178.991818,60.1041401 C179.072148,60.2249664 179.172821,60.331513 179.278571,60.4348978 L179.439094,60.5889933 C179.786876,60.9237511 180.107652,61.2838285 179.87735,62.050883 C181.754123,63.6679243 185.762665,63.7519935 187.787336,65.2910712 C188.930183,64.9374168 188.710422,63.5885517 189.980304,63.3424495 C194.237351,63.4617433 198.229666,63.766553 201.432419,64.6265015 L201.477496,64.6184214 C201.186653,64.0858537 200.921066,63.6003629 200.725054,63.2420925 C201.58867,62.6928709 201.236129,61.2596035 202.099744,60.6994642 L202.276518,60.6050991 L202.276518,58.7110954 C201.320427,58.5029629 201.145291,58.8542104 201.074158,59.2805413 L201.048066,59.4664395 C200.988888,59.9356176 200.938086,60.4115663 200.063041,60.2986215 C198.053474,60.3551384 200.505921,59.1710415 199.192967,58.7110954 C198.294553,59.1403872 196.367122,59.3840088 194.7979,59.1106478 L194.58417,59.0685745 L195.195053,51.1304861 C195.195053,51.1304861 198.997382,49.8960019 205.058853,46.7879878 L205.404357,46.6100573 C206.963366,44.8111674 207.085087,43.4458856 207.090543,43.1235051 L207.090378,43.0692797 C207.090043,43.057092 207.089607,43.0508744 207.089607,43.0508744 C207.089607,43.0508744 206.776168,43.0280554 206.302632,42.9751195 C206.268136,43.4302319 206.042192,44.7103907 204.622517,46.3514053 C202.191655,47.6109258 200.110262,48.5744319 198.474159,49.2816739 L198.0189,49.4768043 C195.984491,50.3412488 194.73249,50.7709793 194.479384,50.8558028 L194.431715,50.8716195 L193.822017,58.8111702 C193.426911,58.7284666 193.058052,58.612222 192.742612,58.4518688 C192.020092,58.0934863 192.415198,57.0661231 191.438023,57.1759352 C191.568056,56.6721321 191.591045,56.3666239 191.594704,56.1157777 L191.595168,55.8778324 C191.59579,55.6013955 191.610679,55.3347279 191.791405,54.8296319 L191.857997,54.6520954 L190.547422,54.6520954 C189.942559,55.2289534 190.019347,55.9070084 190.155999,56.5767932 L190.226436,56.9104895 C190.342549,57.4638122 190.428268,57.9987217 190.123765,58.4518688 C189.036704,58.4445461 187.790582,58.5490833 187.174252,58.2066856 L187.059617,58.1320813 L187.059617,56.2349514 C187.177504,55.9032179 186.897113,55.6309084 186.595572,55.3695581 L186.415127,55.2136752 C186.326653,55.1360036 186.243063,55.058446 186.174541,54.9796937 C185.937846,54.6957445 185.563922,53.9514116 185.319859,53.711571 C184.728396,53.1706891 183.978375,52.7371382 183.208107,52.3190253 L182.436213,51.9026549 C181.539748,51.4149518 180.678478,50.9065694 180.072034,50.2315851 C179.230984,51.7217058 180.883036,52.4143531 182.587746,53.0980487 L183.115783,53.3108157 C184.047915,53.6916609 184.919226,54.0946115 185.319859,54.6520954 C184.591352,55.7208104 183.916263,53.6633272 183.107631,54.6520954 C183.159206,55.1593444 184.231704,54.8974495 183.98672,55.6123767 C183.784838,55.7186968 183.567962,55.8139714 183.351823,55.9097643 L183.093817,56.0257046 C182.326899,56.3787124 181.651078,56.7983838 181.800279,57.8242399 C181.575396,57.6185596 181.234632,57.4979279 180.888151,57.3813711 L180.62894,57.2934522 C180.072452,57.0991342 179.573595,56.8621208 179.605089,56.2349514 C180.70752,56.2831952 181.728902,56.2969791 181.800279,55.6123767 C181.318599,54.3566595 180.001577,53.7446525 177.881449,53.711571 C177.453618,53.3135597 177.456829,52.6276201 176.714444,52.4646863 L176.555678,52.4393132 L176.540507,52.5629726 C176.382714,54.209361 177.953949,55.7490955 175.254313,55.9248127 C174.64093,54.3846869 174.016496,52.408529 175.254313,51.1771635 C173.468044,51.2708943 172.720658,52.2835546 170.861631,51.4928158 C169.692198,51.5433569 169.18899,52.0747279 168.737818,52.6439473 L168.531043,52.9077383 C168.150529,53.3903678 167.73962,53.8513013 166.926222,54.0221692 C167.24857,56.2459786 165.740442,57.1722595 164.74715,58.4518688 C163.108701,57.8462943 162.892267,57.8462943 161.259345,58.4518688 C159.960282,58.2359204 159.347821,57.5095066 157.317029,57.8242399 C157.609598,56.8379223 157.258904,56.3151535 156.89668,55.8010976 L156.742577,55.5799953 C156.61664,55.3939778 156.500743,55.2007838 156.423664,54.9796937 C157.555092,54.9551889 157.480685,54.0632282 157.344991,53.1317865 L157.303589,52.8519976 C157.228511,52.3399156 157.169516,51.8409369 157.317029,51.4928158 C160.019686,51.776765 161.830361,50.7374558 163.865298,51.4928158 C164.753136,51.4078148 164.742084,50.6524548 165.192451,50.2315851 C165.455855,48.7668115 163.220141,49.125194 163.427365,47.6971776 C162.279346,47.6889072 160.94943,47.8097464 160.385782,47.379228 C160.314405,46.3863247 161.490514,46.2884587 162.544132,46.1175378 C163.738201,45.6994249 164.123176,44.7037648 166.042528,44.8411447 C166.406321,44.772225 166.565653,44.5852229 166.496578,44.2093807 C168.579407,44.4538159 167.069897,42.0944645 169.554279,42.6311193 C169.314821,41.8822885 169.630478,41.5324602 169.982931,41.2031113 L170.146328,41.0511799 C170.254484,40.949024 170.358574,40.8432936 170.443499,40.7229622 C171.835122,40.5947716 172.814138,40.1242797 174.370158,40.1036038 C174.365165,40.0502575 174.361918,39.9959541 174.359017,39.9416625 L174.349958,39.779792 C174.322921,39.3800486 174.236759,39.0354692 173.501661,39.1548091 C173.501661,38.2161226 174.29786,37.8673889 175.254313,36.9360538 C174.510149,36.3217495 172.169442,36.8358905 171.745785,35.9799077 C171.872882,34.5261613 171.745785,33.2506871 170.861631,32.5040569 C170.99978,32.272099 171.12337,32.0304942 171.244179,31.7874486 L171.388569,31.4956275 C171.967747,30.3279102 172.591548,29.2027631 174.56884,29.0320998 L174.812696,29.0162601 L174.812696,27.7591645 C175.320624,27.8092462 176.043144,27.7031098 176.126494,28.0688438 C177.380888,27.2009149 178.258596,26.0430637 178.751788,24.6012634 C180.467601,23.5169266 182.426095,22.6241866 183.98672,21.4259025 C184.74654,21.5586878 185.119542,20.9627621 185.319859,21.4259025 C186.199869,20.9689648 187.049054,20.4704169 187.917926,19.9969385 L188.79523,19.5342862 L192.742612,19.5342862 C193.701367,20.0098322 194.33409,20.6916779 194.941486,21.4259025 L194.99168,21.4295783 L192.644986,26.5627184 C192.644986,26.5627184 193.171335,30.0505152 194.431715,30.9758772 C195.693017,31.9012392 196.007076,32.3280819 194.431715,33.2534439 C192.891591,34.1581083 192.354957,37.6479949 194.491744,37.8036593 C193.289933,36.9538854 193.87413,34.2857839 195.195053,33.5114738 C196.773274,32.5860679 196.458183,32.1592049 195.195053,31.2337989 C193.974473,30.3392398 193.44062,27.050114 193.406386,26.8318329 L193.404619,26.8204305 L195.755573,21.6875061 C197.352247,21.7821603 198.51573,22.1897249 199.192967,22.9510941 C201.935543,23.1052718 205.47104,24.0883331 204.528606,25.9876019 L204.459085,26.1155781 L204.673957,26.1294579 C207.112831,26.2428846 207.193664,24.6732115 207.089607,22.9510941 C207.566395,23.2945603 208.482335,23.3147355 209.482462,23.2742937 L209.714594,23.2640045 L209.714594,25.162603 C211.917921,24.7545789 212.996057,23.5295877 214.968256,22.9510941 C217.751941,23.1114549 219.714452,22.6441571 221.543177,22.9510941 C221.785593,22.2872279 221.266761,22.1686212 220.716449,22.0720756 L220.480801,22.0305243 C219.936389,21.9296044 219.464748,21.7760032 219.795647,21.0465223 C222.856132,21.0929305 222.640689,21.8350013 225.479734,21.6833707 C226.964304,20.5401681 228.639405,19.5325141 229.876239,18.2013815 C231.905644,17.7832487 231.820297,18.9076124 232.505839,19.4732403 C233.427651,19.6805368 233.673122,19.4048707 233.870474,19.0942897 L233.960431,18.9500969 C234.14266,18.663279 234.366242,18.4054446 235.125289,18.5289954 C235.057011,19.2940406 235.057011,20.0466795 235.563094,20.423918 C236.442235,20.394431 236.483032,19.7565038 236.459223,19.0845365 L236.449956,18.8600746 C236.445187,18.7480011 236.441011,18.636755 236.441011,18.5289954 C238.789197,18.3107393 239.221466,19.4498065 240.834749,19.7916645 C241.019974,19.0714193 240.475601,18.8856719 239.884921,18.7347305 L239.63093,18.6707156 C239.125245,18.5411202 238.657256,18.384651 238.657256,17.8866332 C238.38407,17.1608589 239.137703,17.1807832 239.955979,17.2423114 L240.215409,17.2623031 C240.60441,17.2919014 240.985189,17.3142049 241.255485,17.2543797 C242.390826,17.2203777 241.974703,16.0780941 242.591967,15.6774218 C244.061774,15.7913745 244.443297,15.125119 245.224796,14.7170949 C247.745982,14.8779152 249.333891,14.3269908 250.467848,13.4585612 C251.868455,13.1768959 251.380365,14.2773663 252.220914,14.4078604 C252.937628,14.4759957 253.204316,14.2174361 253.446153,13.9399477 L253.566969,13.801051 C253.853226,13.4799273 254.202109,13.2028569 255.28878,13.4585612 C255.203894,12.3328191 255.574806,11.5604222 256.602657,11.241998 C258.314203,11.0765828 258.13659,12.2455167 259.232256,12.5120189 Z M317.464084,118.735749 C317.898931,120.760674 316.534758,121.452707 314.415564,121.603009 C314.114657,120.655093 312.173439,119.223538 312.658285,118.735749 C313.428901,118.346163 315.560479,118.992092 317.464084,118.735749 Z M347.084538,113.981648 C349.150522,114.099215 349.949577,113.308517 351,114.287784 C350.654599,114.997338 349.485373,115.090469 348.835395,115.567193 C347.758827,116.892247 347.65883,118.966504 344.906172,119.06148 C344.934945,118.844472 345.056974,118.611772 345.194013,118.385395 L345.319288,118.183957 L345.401048,118.053324 C345.78526,117.431133 345.966676,116.954708 344.036936,117.161038 C343.846422,116.341025 344.353454,116.034652 344.878436,115.736293 L345.102546,115.607441 C345.355399,115.457374 345.589268,115.2919 345.724297,115.051609 L345.783206,114.924953 L345.783206,112.397024 C347.142334,112.242112 347.16848,113.071999 347.084538,113.981648 Z M316.594939,91.4286338 C317.378399,91.3958994 317.519678,91.8182197 318.331577,91.7486014 C318.056135,93.3414494 318.823551,94.1756026 319.59837,95.0052429 L319.870458,95.2990979 C320.408503,95.8913452 320.889539,96.525554 320.949377,97.4669852 C321.687425,97.7758876 321.826412,98.5209419 322.679135,98.7321021 C322.350247,100.361908 323.287371,101.049793 323.110313,102.5482 C323.497914,103.481362 324.209357,102.126341 325.29877,102.5482 C325.760222,104.340756 326.841377,106.324187 326.602854,108.262434 C326.483592,109.321463 325.235928,109.995515 325.734535,111.122779 C324.248347,111.19378 324.63182,112.634096 323.110313,112.70648 C323.460301,114.443711 321.170471,114.247765 321.383766,115.870195 C319.808132,116.105329 318.997151,116.905709 317.899023,117.478331 C313.611096,117.449285 311.961612,117.382433 309.174092,116.202149 C309.585001,115.916242 309.631241,115.368397 309.625676,114.782744 L309.619384,114.460895 C309.61555,114.299442 309.612093,114.138208 309.615362,113.98174 C307.73561,114.713424 308.264032,113.387449 306.559503,113.98174 C306.007228,112.802839 305.204962,111.787611 303.960968,111.122779 C300.274856,110.975704 297.21808,111.291984 295.68327,112.70648 C293.464111,112.413953 292.266856,112.856033 291.141189,113.348549 L290.636264,113.571277 C290.298593,113.718952 289.954535,113.861931 289.578433,113.98174 C288.309669,114.057813 288.246827,113.258355 286.945037,113.342266 C286.803356,112.678846 286.91787,112.204805 287.071629,111.760074 L287.207974,111.38232 C287.366449,110.94127 287.502185,110.483794 287.398232,109.849824 C287.239522,109.115835 286.941367,108.488348 286.091396,108.262434 C287.181726,106.673661 286.115707,104.912917 285.654255,103.499343 C286.233135,102.757516 288.169766,103.002794 289.147714,102.5482 C290.75087,102.126341 290.240337,100.16919 291.32608,99.3738815 C292.216416,98.7321021 292.1655,99.5098908 293.064552,99.6855502 C294.026904,99.5615282 293.074185,98.0073339 293.921862,97.789258 C295.272275,97.8339797 296.387833,97.0363659 297.424495,97.789258 C299.009303,97.5730263 298.616197,95.8901995 299.162508,94.9307577 C300.455583,94.4807744 301.895442,94.1737162 303.519699,93.9694717 C304.41554,93.8906324 303.634832,92.5803328 304.393522,92.3880756 C305.340848,92.6519225 306.660222,92.6504423 307.988752,92.6454859 L308.6521,92.6439303 C310.303978,92.6453784 311.875661,92.7095853 312.658377,93.3479784 C312.851878,93.8746376 312.450415,93.9691662 311.984199,94.0172634 L311.630681,94.0506569 C311.204016,94.0955623 310.834321,94.1824761 310.929996,94.6084849 C310.765552,95.2066952 311.18079,95.3801647 311.645567,95.515079 L311.87963,95.5811111 C312.268434,95.6917694 312.630281,95.8203507 312.658377,96.190342 C314.391804,95.7813921 313.560181,97.2456819 315.272507,96.8293552 C316.16789,96.423402 316.217888,95.3997592 316.184346,94.314336 L316.16029,93.6601156 C316.131102,92.7897963 316.145964,91.9510939 316.594939,91.4286338 Z M219.959755,104.421779 C219.866565,106.835834 218.25638,108.177654 219.057532,109.593681 C218.707234,109.725603 218.369757,109.851959 218.225171,110.13339 L218.180344,110.246509 L218.180344,111.865898 C216.999943,113.332648 217.369456,113.972796 216.412525,115.421229 C214.755976,115.173248 214.323873,115.808229 212.896821,115.748582 C212.044818,115.159759 211.977603,114.528139 211.974304,113.852202 L211.974695,113.537078 C211.974161,113.00661 211.945824,112.44978 211.561568,111.865898 C211.984707,111.52649 212.260721,111.076869 212.515305,110.614305 L212.767402,110.151031 L212.896821,109.922913 C213.100355,108.911264 212.108187,108.77882 212.462864,107.661967 C213.532457,106.704329 214.501907,105.719451 216.412525,105.397264 C216.731502,104.113212 217.407474,103.106729 218.180344,102.159894 C219.999627,102.016647 218.307843,104.439156 219.959755,104.421779 Z M276.315702,94.7850639 C278.968368,95.398019 281.513544,96.1226293 285.086108,96.0550848 C284.985007,96.5591875 285.288321,96.767683 285.630353,96.9467015 L285.860097,97.0646007 C286.201277,97.2436605 286.49991,97.4523834 286.390297,97.9568997 C281.61965,98.3520581 279.630381,96.7217998 275.45347,96.6855004 C275.224163,95.9988823 275.47497,95.6462105 275.787831,95.3376236 L276.02758,95.1099203 C276.1335,95.0083668 276.234702,94.9036598 276.315702,94.7850639 Z M291.652679,88.7778744 C292.407881,89.716146 295.084537,89.2709035 295.176803,90.6769324 C294.571073,91.0877134 293.553833,91.0877134 292.976705,90.6769324 C293.003408,91.3459449 293.342528,91.7944546 293.717477,92.2197463 L294.001086,92.5374443 C294.329716,92.9102057 294.632837,93.3029522 294.725158,93.8478492 C293.120641,94.5003201 293.059745,93.4986394 292.096481,92.8884413 C291.326978,93.1760798 291.129988,93.8740399 291.225946,94.7847423 C287.847603,93.6015644 289.40737,90.0814378 291.652679,88.7778744 Z M267.120777,85.3006639 C267.990852,85.3006639 267.681297,86.1571469 268.87938,85.9375123 C268.671165,86.575586 269.217691,87.0145488 269.800782,87.4545327 L270.050823,87.6437432 C270.20588,87.7627682 270.3562,87.8839178 270.487981,88.011038 L270.61307,88.1402909 C271.228488,88.8134387 272.804403,89.7163298 274.145498,90.3665033 C274.091984,91.8782141 276.003287,93.2612686 274.995274,94.4706373 C272.956643,95.145623 272.352757,93.062311 270.195563,92.888625 C271.079478,88.5565857 264.920679,89.3083057 264.920679,85.6117363 C266.047716,85.262986 267.176137,86.6942867 267.120777,85.3006639 Z M289.903442,85.9374204 C290.102738,86.9280734 289.355839,87.2258207 288.591871,87.5079455 C289.407509,88.260125 288.036426,89.3371615 289.045362,90.3664114 C287.559869,90.789139 288.280471,92.7663097 286.843418,93.2005245 C286.845571,93.4100504 287.082697,93.4521189 287.339916,93.4786671 L287.53324,93.4980421 C287.596699,93.5051131 287.658056,93.513588 287.713954,93.525841 C287.649829,94.1217951 286.264907,93.7445566 286.390389,94.4710049 C285.069905,94.6911646 284.456479,94.4005364 283.89365,94.0736073 L283.635084,93.9218671 C283.072285,93.594999 282.459089,93.304828 281.139033,93.525841 C281.281585,91.8386063 279.375356,91.6387297 278.947239,90.3664114 C279.72597,87.3296647 285.551224,87.9651346 285.958581,84.6623452 C287.989832,84.5759617 288.845143,85.3331956 289.903442,85.9374204 Z M313.977965,82.8594954 C315.076993,83.0946642 315.880006,83.5442566 316.672961,84.0003225 L317.106204,84.2484779 C318.050182,84.7821225 319.052729,85.2720009 320.585854,85.3748624 L320.949286,85.3915734 L320.949286,86.3519373 C321.687792,87.4086603 323.287279,87.8189934 324.426689,88.5824896 C324.408342,89.537782 324.827135,90.1966202 325.734443,90.4773987 C323.995053,91.6249482 322.83867,89.6424399 321.817605,89.2072102 C320.817639,89.0589832 320.438294,89.3652346 320.117605,89.7141906 L319.898055,89.9575377 C319.649175,90.2242585 319.358267,90.4600207 318.769544,90.4773987 C318.222615,90.3835356 317.778094,90.1574332 317.355443,89.920888 L317.076032,89.7629807 C316.283907,89.316154 315.506125,88.9293362 314.190281,89.4379279 L313.977965,89.5257947 L313.977965,87.6184373 C312.349121,86.2666433 309.804713,85.5815253 307.858908,84.4376642 C306.790137,84.0411625 305.760815,85.1550555 305.705771,84.4376642 C305.301197,83.4298123 307.145171,84.0047397 307.01857,83.1725473 C308.360726,82.9291137 307.825423,84.0526887 309.174001,83.8124825 C310.017954,83.8569059 310.369695,83.5470622 310.663054,83.191591 L310.795885,83.0254114 C310.817859,82.9975495 310.839883,82.9696985 310.862154,82.941999 L310.929904,82.8594954 L313.977965,82.8594954 Z M250.021139,81.8143096 C250.947957,82.4148586 251.858168,83.0273542 252.221237,84.0290349 C251.840515,84.0656003 251.629553,84.2250307 251.445731,84.4040413 L251.29149,84.5598652 C251.03441,84.8195338 250.74956,85.0589377 250.021139,84.9769556 C248.354803,84.0740645 250.64809,83.6890148 250.021139,81.8143096 Z M309.174138,81.5866789 C309.066344,82.9080438 305.884801,83.224323 304.393568,82.5479649 C304.278434,81.0643111 307.756756,80.940289 309.174138,81.5866789 Z M296.481731,77.7020427 C297.71349,77.7571811 298.339519,78.2492912 298.230183,79.2872714 C298.455841,79.4549183 298.76484,79.5626632 299.081517,79.6650122 L299.319281,79.7416138 C300.0298,79.9734935 300.683422,80.2470403 300.418287,81.1831129 C298.324757,81.0379152 297.101762,81.5208356 296.481731,82.446701 C295.098654,82.2357966 295.893531,81.607219 296.034237,80.8692836 C294.654851,80.7066254 294.324998,81.5493237 293.416633,80.8692836 C294.138619,80.1074549 294.570888,79.3768712 296.034237,79.9176869 C296.047155,79.0754481 295.865851,78.1096073 296.481731,77.7020427 Z M77.0835977,81.8228427 C76.5844848,81.8691974 76.3750241,82.1291008 76.2078256,82.4223712 L76.1989357,82.4371667 C76.2484695,82.405286 76.2982683,82.3736089 76.3482406,82.3420667 L76.8516983,82.0277512 C76.9324829,81.977115 77.012923,81.9262325 77.0926347,81.8748157 C77.0888595,81.8581849 77.0861588,81.8405652 77.0835977,81.8228427 Z M143.750356,77.2545933 C144.467098,77.3197587 144.731123,77.7444621 144.654743,78.4079631 L144.634961,78.5438115 L142.884759,78.5438115 C142.719707,78.1037396 142.936106,77.9400629 143.193768,77.8070902 L143.367923,77.7202944 C143.569524,77.6180482 143.750356,77.5013477 143.750356,77.2545933 Z M294.295841,74.2199157 C294.570796,75.8028469 293.082535,76.0845122 292.532165,77.0687324 C291.466023,76.5775413 290.587184,75.9402334 289.903488,75.1710529 C289.842131,73.595014 293.103295,73.0744157 294.295841,74.2199157 Z M281.138941,74.2195481 C280.611176,74.8885605 280.611176,75.9403253 279.375264,76.1232009 C278.944792,74.6379185 278.701233,74.8397441 278.962415,74.4850847 L279.0464,74.3728767 C279.127214,74.265063 279.235591,74.1179699 279.375264,73.9052593 C280.147536,73.8836634 280.746346,73.9741823 281.138941,74.2195481 Z M92.8554265,72.9303876 C93.2468459,74.2334517 91.8980982,74.287212 90.3772012,74.2178201 L90.2193172,74.2102485 L90.2193172,72.9303876 L92.8554265,72.9303876 Z M80.1571369,69.1342188 C80.3646683,70.0268988 81.8224607,70.0457744 82.7706483,70.4025702 C82.7706483,71.027308 83.9877044,70.8044833 83.665339,71.66908 C86.3065212,71.7583941 88.7231085,71.4720367 89.3516978,73.572758 C89.1144558,73.5840905 88.8570371,73.5808147 88.5957462,73.574636 L88.1247622,73.5629075 C87.1885172,73.5432936 86.3288708,73.5770785 86.3065212,74.2103866 C85.3426534,73.9387614 84.7956931,73.3867639 83.2221443,73.572758 C83.0012387,72.7606448 82.4930175,72.3375541 84.0937759,72.3044067 C83.7741777,71.5862113 81.6449061,72.1847074 80.601254,71.9867433 C78.7071846,71.7814131 78.5033427,70.3464036 76.6590808,70.0867484 C75.5718472,69.882339 75.0308821,70.0723615 74.538687,70.2981787 L74.2943503,70.4124098 C73.8862187,70.6022319 73.4543741,70.7754026 72.7109123,70.7243769 C72.6518153,69.9865167 73.3009343,69.7674855 73.5501586,69.257453 L73.6000688,69.1342188 L80.1571369,69.1342188 Z M81.4584507,73.8929534 C80.0014077,74.2852849 79.8803478,73.9225725 78.6556629,74.1552766 L78.3952881,74.2101564 L78.3952881,72.9302955 C78.7241407,72.9431862 79.0826467,72.9332675 79.4352497,72.9266299 L79.7352059,72.9223525 C80.7741876,72.9144537 81.6686108,73.0031739 81.4584507,73.8929534 Z M291.225577,68.846542 C291.218959,68.9358408 291.213508,69.0260029 291.208497,69.1165087 L291.194054,69.3885377 C291.133297,70.5219589 291.027426,71.6279092 289.454518,71.6916828 C289.271369,70.8747157 288.851556,70.2378673 288.138335,69.7963007 C288.609356,69.068474 290.128526,68.1416896 291.225577,68.846542 Z M85.8473236,69.7611205 C86.5054285,69.8195889 87.4600727,69.6510893 87.596121,70.0866103 C88.0785161,71.1956696 84.9231173,70.9346332 85.8473236,69.7611205 Z M84.0935915,68.498662 C85.2179502,68.5331906 85.7953485,68.9599644 85.8474619,69.7610284 C85.308519,69.8600459 85.0532923,70.1610864 84.2942924,70.1075983 L84.0935915,70.0865182 L84.0935915,68.498662 Z M83.2220982,67.2357892 C83.5998052,67.5994907 83.7948847,68.0833517 83.6652929,68.8061509 C82.0958435,69.0326927 81.761025,68.3678448 81.8845701,67.3542583 L81.9008153,67.2357892 L83.2220982,67.2357892 Z M78.8488132,67.2357431 C79.9018245,67.2673741 80.4768675,67.6521703 80.5862457,68.3617288 L80.6013001,68.4985699 L78.8488132,68.4985699 L78.8488132,67.2357431 Z M44.6653571,63.4223101 C44.2904171,64.3495187 45.8704224,65.489884 46.4229169,64.6888199 C46.1365237,64.5835076 45.9644024,64.3941613 45.8061354,64.1929593 L45.6487674,63.9904786 C45.435183,63.7223638 45.1867219,63.4759446 44.6653571,63.4223101 Z M307.877215,52.6983002 C307.772031,55.0775216 308.667479,56.7721081 308.742676,59.0281871 C307.333764,60.228366 304.428749,60.3469136 303.044288,61.5650124 C302.687677,61.3954619 302.326915,61.2351011 301.742406,61.2392365 C300.473278,61.7042369 299.410827,62.3066238 299.10727,63.4525832 C298.96315,63.3468094 298.803473,63.2524309 298.64084,63.1602028 L298.396249,63.0223177 C297.865614,62.7205138 297.370661,62.3923304 297.35061,61.7155012 L297.353743,61.5650124 L299.98611,61.5650124 C300.171105,60.6878526 297.586716,61.8048644 297.784628,60.9327589 C297.817993,59.9141365 298.876947,59.6472145 300.046545,59.4592682 L300.418502,59.4017574 C301.041004,59.3076659 301.667476,59.2158355 302.164525,59.0281871 C303.759354,57.9925044 304.533472,57.6235367 306.106618,57.1406163 C306.055871,56.7624589 306.212263,56.569934 306.560108,56.4941187 C305.923036,55.0045207 306.555891,54.2757678 306.193119,52.9679761 L306.106618,52.6983002 L307.877215,52.6983002 Z M44.2429155,62.7860627 C44.2429155,62.9669927 44.5966411,63.1548284 44.6653571,62.7860627 C44.6653571,62.6184838 44.3250057,62.4260443 44.2429155,62.7860627 Z M193.055159,59.9859869 C191.88937,59.2838914 190.56396,59.9138475 190.43617,59.0284169 C190.698669,59.0104969 190.950557,58.9755759 190.87905,58.7113711 C192.384842,58.5840934 193.371633,58.802809 193.055159,59.9859869 Z M285.129667,55.9816835 L284.971745,56.1536592 C284.867674,56.2690535 284.76445,56.3847985 284.652639,56.4940728 C285.795362,56.2335439 287.053417,57.4461289 287.714047,56.4940728 C287.274771,56.4567969 287.246523,56.1085205 287.26592,55.7356213 L287.279041,55.5315011 C287.28578,55.4299414 287.291148,55.3304231 287.287775,55.2387555 C286.076901,55.1351621 285.558774,55.5283308 285.129667,55.9816835 Z M305.237604,48.9041359 C307.634692,49.07047 309.073129,49.9356832 311.366416,50.1723188 C309.562142,50.3404909 309.712537,51.9206652 308.742814,52.6985759 C308.268672,52.7435515 308.134838,52.5452314 308.037944,52.3185217 L307.967461,52.1465243 C307.882251,51.9474855 307.767257,51.7678453 307.419249,51.7515741 C305.885316,51.5728338 305.998804,53.2407701 304.794263,52.3934768 C304.776098,51.899816 304.87886,51.497198 304.997549,51.1074547 L305.117658,50.7191078 C305.274511,50.1993136 305.397456,49.6560856 305.237604,48.9041359 Z M176.555678,51.8070897 C176.041072,51.8768709 176.103212,52.3666316 176.476871,52.4321221 L176.555678,52.4393132 L176.555678,51.8070897 Z M164.436506,34.0718145 L164.746874,34.0841562 C164.799695,34.6937578 164.37157,34.95219 163.883204,35.159841 L163.655058,35.253168 L163.427549,35.3458464 C163.865022,35.7814189 164.600896,35.9799077 165.192635,36.301533 C164.372029,37.1394392 164.885098,37.6251696 165.502689,38.1543985 L165.710738,38.3329619 C166.232108,38.7861121 166.731221,39.2999999 166.496763,40.1036038 C166.921801,40.5258519 167.663662,40.7229622 168.271979,41.0542363 C166.616031,41.9593819 166.856871,42.8535003 166.496763,44.2093807 C163.858575,44.0991092 161.664766,44.3012737 159.49122,44.5300871 C159.401711,43.9247423 159.98442,43.8192449 160.621453,43.7540179 L160.877698,43.7289856 C161.133912,43.7039222 161.385636,43.6754978 161.593325,43.6142994 L161.693317,43.5808329 L161.511159,43.3483586 C160.995386,42.6886695 160.512191,41.9986056 160.817912,40.7229622 C161.518789,41.2035624 163.173815,40.5851228 162.989617,39.4631099 C162.41814,39.3284867 161.873372,39.2866755 160.817912,38.8308864 C160.568323,37.1726782 161.583258,36.438913 161.259068,34.711785 C162.166217,34.4772436 162.918063,34.1046585 164.144717,34.0728802 L164.436506,34.0718145 Z M159.932606,38.8308405 C159.830376,40.2832085 159.471649,40.3585608 159.932606,41.6809003 C159.079766,42.1091214 157.432568,41.9804713 156.423618,42.3190968 C155.765568,41.8495238 156.060747,40.6962673 156.006868,39.7833109 C156.733037,39.2522757 157.654202,40.1710862 157.748549,38.9836681 L157.755837,38.8308405 L159.932606,38.8308405 Z M200.636888,41.0242572 L200.70707,41.0559648 C201.254614,41.3105313 201.678251,41.6479158 201.89269,41.9382465 C202.141886,42.0466411 202.433356,42.1428282 202.745612,42.2278322 L202.669113,42.1966889 L202.669113,42.1966889 C202.353547,41.7701942 201.585928,41.2421644 200.636888,41.0242572 Z M196.360783,38.1629985 L196.382278,38.1743554 C197.47078,38.7126983 197.941762,39.7743513 197.793805,40.8704504 C198.060065,40.7748857 198.326345,40.7157133 198.588466,40.6865677 C198.568375,39.5237099 197.82472,38.4771797 196.360783,38.1629985 Z M188.067017,26.796778 L187.916141,26.8048563 C187.391359,27.5820103 186.639981,28.1970115 185.885883,28.8108328 L185.475633,29.146495 C184.320118,30.102689 183.255327,31.125969 183.107631,32.8105199 C183.461292,33.4133377 183.841202,33.9867497 183.98672,34.711785 C183.029807,36.0295299 182.354257,37.5457635 181.371556,38.8308864 C179.212354,39.5463806 178.504927,38.5433909 177.934302,37.4813168 L177.804449,37.2359293 C177.397148,36.460331 177.008885,35.7213464 176.126494,35.6665528 C176.194648,37.0862988 176.881249,38.0750669 177.881449,38.8308864 C176.855461,38.9209415 176.855461,39.6919234 177.881449,39.7833568 C177.926117,39.0100777 179.316358,39.716275 179.177288,40.1036038 C180.326688,40.0700628 180.584106,39.3335409 181.800279,39.1548091 C182.785743,39.0036452 183.862385,39.253594 185.319859,39.1548091 C186.703653,38.3585567 186.091652,36.1306121 187.059617,35.0389239 C188.978999,34.460443 187.889,36.0635829 188.706899,36.2842106 L188.79523,36.301533 L188.79523,33.1385777 C187.297694,32.9547918 186.141386,32.5330032 185.319859,31.8732118 C184.918766,29.1568563 188.444792,29.2983714 188.79523,27.1251032 C188.730024,26.924409 188.544867,26.8128142 188.202744,26.7978467 L188.067017,26.796778 Z M102.055153,39.9580401 C102.181516,40.0436711 102.716947,39.8116387 102.501114,39.6482032 C102.370139,39.5459985 101.832863,39.795065 102.055153,39.9580401 Z M17.5274724,36.4138069 L17.517029,36.4701889 L17.6127359,36.481859 C17.9041045,36.5012704 17.9277733,36.3320326 17.9491554,36.1612728 C17.628727,36.1028504 17.5615698,36.2465447 17.5274724,36.4138069 Z M192.742612,33.1385777 C192.518695,33.173229 192.273233,33.1930435 192.025166,33.2113323 L191.727448,33.2333986 C190.887243,33.2986725 190.10452,33.4078624 190.123765,34.0841562 C191.427893,34.0809399 192.778991,34.1176971 192.742612,33.1385777 Z M134.035687,-7.17534779e-13 C134.204281,0.0391653221 134.384078,0.0696632556 134.566133,0.0979852819 L134.930605,0.153651527 C135.473879,0.238569286 135.983813,0.342852769 136.218916,0.641771978 C136.998773,-0.195201807 138.74342,0.277149735 140.154172,0.641771978 C142.585978,0.485702609 144.509563,0.674459073 145.419934,1.59522231 C145.189423,2.22880267 144.340956,2.41877715 143.450623,2.57986485 L143.038825,2.65367201 C142.080815,2.82815002 141.177039,3.04312251 141.047018,3.81656363 C141.929718,4.3183796 143.970443,2.98465404 145.864512,3.17525203 C147.233297,3.0283903 147.022537,4.03110147 148.056965,4.12455893 C148.347048,4.75896481 150.651107,3.92567407 150.248035,5.08077156 C150.508602,6.33300957 147.837905,5.44907686 146.742139,5.70965285 C146.041721,5.63175628 145.755203,5.85181409 145.509151,6.10154149 L145.347013,6.26947777 C145.100504,6.51914301 144.811475,6.73885898 144.106491,6.6603409 C143.791504,7.6372707 144.85591,7.59859864 144.542307,8.56263775 C142.907421,8.23438566 143.292507,9.35311299 141.929718,9.19888515 C143.067451,9.85354782 145.306944,9.70714646 145.419934,11.1080877 C143.835778,11.0081849 142.567992,11.1637939 141.49713,11.4206869 C142.152468,13.1618501 143.34047,16.3555174 139.724351,16.4922508 C139.826539,16.6405421 139.959707,16.7666433 140.094169,16.8919156 L140.254244,17.0432115 C140.568039,17.3504761 140.820894,17.7021821 140.602439,18.3936269 C139.962782,18.2347952 139.50898,17.9272603 138.853642,17.7661267 C137.62644,18.2582747 141.210737,18.9078731 139.724351,19.6670424 C137.469177,19.7296543 136.532058,18.8047477 134.914236,18.3936269 C133.699486,18.1717229 134.02139,19.0298743 133.154831,19.0298743 C133.579759,19.0619008 134.079787,19.2364037 134.588291,19.4199007 L134.970218,19.5571242 C135.796657,19.8490577 136.601496,20.0766219 137.098849,19.6670424 C138.338964,20.7876113 134.649057,21.0633799 134.47058,22.2074282 C132.273054,22.507597 131.339163,23.7289895 129.224649,24.112027 C128.404669,24.4734265 127.72535,24.9374912 127.029428,25.3707103 C126.147831,25.0107119 125.687868,25.1423811 125.265054,25.3073127 L125.035801,25.397819 C124.652151,25.5449765 124.24143,25.6507424 123.51477,25.3707103 C122.390411,25.4052389 122.896326,26.6123596 121.777502,26.6372202 C122.204555,28.9681323 119.490506,28.9989779 120.022248,31.3878981 C119.016413,31.6259154 118.700043,32.3454919 118.25777,32.9803581 C116.910984,33.0599581 117.30065,31.8826875 116.253247,31.7319997 L116.075463,31.717071 L113.00031,31.717071 C111.984416,30.7913306 111.860241,29.5883793 111.794141,28.3972201 L111.770447,27.9516526 C111.693726,26.5460142 111.551953,25.2079468 109.949138,24.4214034 C109.454752,23.4905118 112.049355,23.2529549 110.816157,22.8390718 C111.676721,22.1802657 112.888243,21.7981489 113.882548,21.2512156 C113.27794,20.0095664 110.318082,20.4515327 109.949138,19.0298743 C111.25843,19.0478292 112.822294,19.2158684 112.582941,18.0856316 C111.533294,16.9360587 111.25843,19.0142213 109.511016,18.3936269 C109.268681,17.4401458 109.731399,16.9811515 109.914533,16.3211809 L109.949138,16.176429 L109.765134,15.9423414 C109.243505,15.2782002 108.750189,14.5853501 109.068744,13.3252856 C106.494894,13.6015146 105.145018,12.9974939 103.808977,12.3718353 C102.452183,12.1310557 102.976084,13.2327489 101.625286,13.001177 C101.427125,12.9421644 101.225148,12.8860968 101.023063,12.8302611 L100.619847,12.718095 C99.4832214,12.3966122 98.4225114,12.0244983 98.1124721,11.1080877 C99.308775,10.481048 101.938428,10.9174897 103.808977,10.7918056 C103.748269,9.52851839 102.720133,9.83098531 101.754399,10.1613006 L101.514861,10.2435697 C101.238308,10.3381504 100.974364,10.4241978 100.748581,10.4635535 C100.748581,9.62381739 98.5418314,9.62381739 98.5542833,10.4635535 C97.7227744,10.3374089 97.7688924,9.56350739 96.3678253,9.83835522 C96.9424565,8.54376211 98.3615097,8.47930868 99.4434398,8.89135023 C100.630058,8.05575759 102.976084,8.07463324 104.239259,7.30855822 C104.467082,6.29019408 102.085083,7.17965137 102.501068,6.03514266 C107.022023,5.69630179 109.068744,3.6144561 113.460107,3.17525203 C116.373847,3.70975509 118.158155,3.12921387 121.318166,3.48969268 C121.767971,3.39892077 121.534504,2.89707923 121.269548,2.35792706 L121.155967,2.1256672 C121.007023,1.81584742 120.878199,1.5112794 120.891112,1.28170243 C121.482162,0.637315484 122.906869,0.606050784 124.415072,0.626862096 L124.91987,0.63495833 C125.341396,0.642029792 125.762934,0.648309397 126.168404,0.641771978 C126.99509,0.277993768 128.346381,0.290038822 129.737437,0.328615232 L130.497224,0.350188693 C131.886712,0.386866029 133.227813,0.3865671 134.035687,-7.17534779e-13 Z M146.994601,25.178669 L147.192937,25.3686464 C147.428479,25.5873975 147.692411,25.7858965 148.130295,25.8576697 C149.930379,25.3476638 150.608691,25.9684007 152.505939,25.5484499 C152.455075,26.0984292 152.669243,26.4587113 152.908332,26.8023703 L153.068782,27.0309129 C153.360046,27.452357 153.60883,27.906423 153.376739,28.7091079 C152.819538,29.1543292 151.234967,28.8464879 151.185694,29.652389 C150.739472,29.3284664 148.062142,29.000868 147.700652,29.652389 C146.344488,29.4800897 146.81926,27.9744238 144.629596,28.3884015 C144.414344,27.701242 144.784464,27.4303663 145.188074,27.1864991 L145.374725,27.0744453 C145.621404,26.9238173 145.848612,26.7607377 145.927738,26.4944878 C144.893461,26.3630809 144.984179,27.0701972 143.760638,26.805086 C143.760638,25.6568836 146.035955,26.1315107 145.498554,24.6014931 C146.30709,24.5661869 146.664314,24.8620516 146.994601,25.178669 Z M82.22895,26.4321515 L82.4743506,26.5328555 C82.7634262,26.6480251 83.0840207,26.7390278 83.6651084,26.6373122 C84.8092979,27.4231837 83.6678755,27.8877087 85.4028375,28.2237873 C84.8895433,30.2172397 81.7585871,26.6990034 81.901092,29.1781584 C80.2841922,29.1896679 78.8762074,29.0299155 78.8489977,27.9245392 C80.0618395,28.1337113 80.370506,27.7020649 80.5781626,27.1990874 L80.7104498,26.859451 C80.7891709,26.6624564 80.8796084,26.4738133 81.0289992,26.327015 C81.6155346,26.2257023 81.9391934,26.3169316 82.22895,26.4321515 Z M198.765311,25.8063436 C198.669815,26.3558896 198.818364,29.0195332 201.383838,28.6464301 C201.945012,28.5021704 201.857456,28.3135097 201.702514,28.1107967 L201.614812,27.9990148 C201.454584,27.7921951 201.332669,27.5768411 201.830409,27.3833015 C202.815178,27.0749153 204.471729,27.268243 204.46769,26.2443926 L204.459085,26.1155781 L204.18332,26.038146 C202.759015,25.6841938 200.671338,25.8145282 198.765311,25.8063436 Z M202.703713,28.3266274 C202.821814,28.4171463 203.360651,28.1800512 203.142902,28.0169335 C203.014651,27.9268741 202.474891,28.1658071 202.703713,28.3266274 Z M233.375452,22.3188406 L233.364606,22.4334199 C233.343768,23.1593124 234.332235,23.1405995 235.125289,23.2640045 C235.357524,22.6533468 234.793738,22.617176 234.23799,22.5767706 L234.018025,22.5590108 C233.730393,22.5313719 233.475543,22.4805799 233.375452,22.3188406 Z M233.375452,22.3188406 C233.787422,21.0019521 232.064804,22.2558909 233.375452,22.3188406 Z M227.264447,12.5122946 C227.025015,14.1531211 225.625792,14.9223016 222.855947,14.7173706 C222.084137,14.9690161 221.441448,15.3133757 220.812839,15.66781 L220.342224,15.9342335 C219.241895,16.5542702 218.096603,17.1418897 216.289791,17.2541959 C215.800317,19.5098154 217.856479,19.9155421 218.498194,21.3702765 C217.732842,21.3514376 217.346244,21.6055337 217.152023,22.0057465 C215.553042,21.4768774 214.183805,20.7665112 212.792424,20.0988772 C212.896686,19.1302795 213.990045,18.875724 214.531189,18.2016572 C214.358023,17.3725964 214.80666,16.9856308 215.295884,16.62763 L215.541187,16.4491307 C215.987244,16.1192942 216.386007,15.7559389 216.289791,15.0408491 C218.872335,14.2771825 221.323398,13.4014011 224.605784,13.1399532 C225.011757,13.1399532 224.962244,12.8210376 225.033257,12.5767673 L225.056045,12.5122946 L227.264447,12.5122946 Z M193.622161,21.7479873 C193.743733,21.8357451 194.276528,21.596364 194.055489,21.4259025 C193.938062,21.3409016 193.391913,21.5775259 193.622161,21.7479873 Z M62.1856832,21.5128797 L62.1952991,21.5644132 L62.3279997,21.5726744 C62.9012351,21.6060519 63.4399601,21.6001585 63.5110478,21.2508933 C63.4589945,20.5093186 62.1756915,21.123647 62.1856832,21.5128797 Z M67.2598488,16.4744678 L67.0137157,16.4919285 L67.0137157,18.3933046 C67.2214599,18.3508078 67.4378492,18.3138901 67.6553065,18.2772658 L67.9813464,18.2218886 C69.064502,18.0336267 70.0796455,17.7866279 70.0796455,16.8201806 C68.6563263,17.0614493 68.4250964,16.4339726 67.2598488,16.4744678 Z M137.542505,17.7661267 C137.681782,16.9181038 138.632275,16.6483201 138.853642,15.8688941 C137.542505,15.6713903 136.370645,17.1998573 137.542505,17.7661267 Z M262.277055,17.5796962 C262.412226,17.6619443 262.977821,17.4243897 262.743925,17.2543797 C262.613367,17.1588065 262.063919,17.4179569 262.277055,17.5796962 Z M263.60754,17.2543797 C263.73902,17.3439796 264.269554,17.0921809 264.043039,16.9433073 C263.927706,16.8541669 263.385178,17.091262 263.60754,17.2543797 Z M53.4471612,17.141527 C53.5629175,17.2170296 54.0941978,16.9803934 53.8654521,16.8201806 C53.7335544,16.7221193 53.2096531,16.9679631 53.4471612,17.141527 Z M264.920956,16.6184503 C265.043671,16.7025363 265.588044,16.4741715 265.367065,16.2977287 C265.240199,16.2099667 264.69398,16.4580895 264.920956,16.6184503 Z M68.7629744,14.9059138 C68.5240827,15.1057195 66.9906567,15.8708737 68.3142455,16.1765671 C68.2815017,15.7594614 70.1096222,15.2152903 68.7629744,14.9059138 Z M294.295841,13.7760205 C293.223703,14.2773203 292.706549,15.1673458 291.652863,15.6773759 C291.187494,15.2981271 290.374978,15.1708135 289.57199,15.0382013 L289.252149,14.9842642 C288.081352,14.7799208 287.034643,14.4895057 287.255116,13.2886203 L287.287729,13.1400911 L289.903488,13.1400911 C290.370357,13.2554222 290.587184,12.5298929 290.777253,12.5119729 C292.275202,12.3194481 292.629045,13.621633 294.295841,13.7760205 Z M106.895291,1.9091105 C106.974614,2.37179403 108.197665,2.02236438 108.197665,2.54213523 C107.463004,4.44305094 104.776165,3.5172235 102.939282,4.12446686 C101.966191,4.17372769 103.501462,4.9250705 102.939282,5.71002116 C101.287794,5.69620971 100.426769,6.21459941 99.8931833,6.97607061 C98.4948832,6.8236843 97.7416597,7.13041355 97.0548463,7.48145454 L96.7404638,7.64510941 C96.165015,7.94537347 95.573374,8.23167295 94.6149694,8.25270885 C95.0807302,10.2160936 92.5942058,10.0623404 92.4342054,11.5718317 L92.4262055,11.7400996 L89.3515134,11.7400996 C89.0600471,12.6060774 91.4291327,11.51129 91.1040003,12.3717432 C91.230825,13.2064151 90.4933969,13.4214133 89.3515134,13.3251935 C88.3396828,15.6901739 83.9054297,13.9411841 80.6015307,14.2837081 C80.6073193,13.7048179 80.0075705,13.5674982 79.3753822,13.4546662 L79.0833865,13.4028099 C78.4064271,13.2787815 77.7941008,13.1087348 77.9621932,12.3717432 C80.1260533,11.7488469 82.3696978,13.5466371 85.8474619,13.0010849 C84.6580767,11.6180985 82.7704639,11.8123795 80.1574136,12.0582233 C79.5564951,10.7769813 81.0936106,11.0564329 81.0290453,10.1586888 C81.6993715,10.0376084 82.1007141,10.116794 82.4633175,10.2247535 L82.731604,10.3084387 C82.999822,10.3921598 83.2786274,10.4679501 83.6651545,10.4634614 C83.9054297,9.64720477 83.4857552,9.32447726 82.3452552,9.51921868 C82.1497145,8.82174053 84.9864374,8.7296642 83.6651545,8.25270885 C83.6282154,7.87411179 84.1227414,7.88048911 84.660542,7.91762154 L84.9100528,7.93565355 C85.5741281,7.98268329 86.1899853,7.99375161 85.8474619,7.30846614 C84.3029675,6.72286072 81.6604018,8.07454116 81.4584046,9.51921868 C80.4998692,9.52741923 80.2158107,9.04520545 79.086224,9.16622254 L78.8485826,9.19879308 L78.8485826,7.30846614 C78.6724116,6.69155477 77.1482091,7.04973167 77.5291445,6.03505058 C77.3257637,5.35138388 78.1411313,5.42412417 78.8485826,5.40294662 C78.6470466,4.73401212 79.1497337,4.56136902 79.2913162,4.12446686 C82.5509418,3.65856066 81.6857667,6.19664453 84.5330967,6.03505058 C84.2324069,4.76992189 81.7586333,5.08942673 82.3452552,3.17515996 C89.9445918,0.986966117 99.7207017,2.61441514 106.895291,1.9091105 Z M180.955267,7.82303532 C181.311692,8.28755418 182.044803,8.50304314 183.107631,8.44698844 C183.702132,8.40793394 184.74654,9.51662236 184.878242,8.77872199 C185.201888,9.11492487 185.638119,9.37040625 186.093625,9.6131217 L186.399128,9.77378648 L186.667815,9.91559581 C187.691789,10.4641215 188.616085,11.0916675 188.379402,12.571144 C186.060279,12.9393086 185.136942,12.2912769 184.30249,11.5892505 L184.094972,11.4131759 C183.922324,11.2664377 183.748806,11.1208361 183.562602,10.9850717 C183.011847,12.075841 182.631016,13.2736656 182.251106,14.4600035 C180.992107,14.5303016 179.861586,14.5077879 180.072034,13.5190197 C178.468122,13.7138328 177.732248,13.3044497 177.001899,12.8826611 C177.033674,11.4381039 179.073215,11.4413202 179.177288,10.0303039 C178.145544,9.96574915 177.614015,10.267158 177.115815,10.5931483 L176.844568,10.771347 C176.434238,11.0361463 175.989392,11.2758502 175.254313,11.3034807 C174.432786,10.6997441 175.197672,10.5035526 175.254313,9.72108417 C174.935649,8.88210155 173.26036,9.05118458 173.049913,8.13179563 C173.204179,5.14757213 177.380888,6.63164325 178.309251,8.13179563 C179.445757,7.88046842 177.468383,6.75156354 178.751788,6.23926036 C180.584106,5.96495991 181.973887,6.98037699 180.955267,7.82303532 Z M87.5962594,13.3251935 C87.7198558,13.4214133 88.2691221,13.1672826 88.0426824,13.0010849 C87.9158576,12.913152 87.3712032,13.1622184 87.5962594,13.3251935 Z M252.657796,8.70351854 C251.842159,10.7601804 248.227613,9.23652295 244.785606,9.65787213 C244.864394,9.46241055 244.822011,9.17850518 244.774781,8.8897248 L244.740268,8.67353122 C244.671397,8.20878962 244.666522,7.7863434 245.224796,7.76478749 C247.619115,6.96665933 251.628101,7.48220325 252.657796,8.70351854 Z M220.220074,7.76469559 C218.592951,7.64017473 217.784234,9.06504257 216.289515,8.07990338 C216.148347,6.44642864 220.18086,5.76455058 220.220074,7.76469559 Z M182.678355,5.60106383 C186.227867,5.67319979 190.0569,5.77520097 194.055397,6.23926036 C194.341563,7.00869971 193.881697,7.242385 193.357877,7.42985277 L193.146554,7.50353532 C192.758805,7.6383557 192.385569,7.7834229 192.295837,8.13179563 C188.138469,8.51315137 185.871442,7.51611288 183.107538,6.87699742 C182.781046,6.595805 182.647041,6.16390814 182.678355,5.60106383 Z M140.602439,2.54222731 C138.74342,2.74111217 134.63845,2.18497117 133.154831,3.48969268 C135.533141,3.3690727 137.51299,3.50902871 138.853642,4.12455893 C138.94322,4.07705838 139.035497,4.03185178 139.12865,3.98752526 L139.40891,3.85577216 C140.01392,3.56990104 140.578811,3.2614788 140.602439,2.54222731 Z" id="Combined-Shape"></path>
            </g>
        </g>
    </g>
</svg>